name	code	liu	subidx	pdiv	size	w1999	w2000	w2001	w2002	w2003	w2004	w2005	w2006	w2007	w2008	w2009	w2010	w2011	w2012	w2013	w2014	w2015	w2016	w2017	w2018	w2019	w2020	w2021	w2022	m2001	m2002	m2003	m2004	m2005	m2006	m2007	m2008	m2009	m2010	m2011	m2012	m2013	m2014	m2015	m2016	m2017	m2018	m2019	m2020	m2021	m2022
Natural Gas	NG	NG	NG	1	10000	0.050694	0.060125	0.073005	0.091811	0.103879	0.116134	0.12283	0.123152	0.125462	0.122371	0.118901	0.115522	0.11218962	0.10765109	0.10423592	0.09446	0.08739755	0.08448842	0.07976505	0.08014097	0.08260138	0.07960135	0.08072006	0.07954867	11.25373548	45.76918644	30.436993	30.01515539	38.5926359	31.72822578	52.3423314	57.15082625	52.9573864	75.01828514	114.7586289	148.9289604	138.2787332	88.09995397	100.6505247	97.70766346	80.92310994	104.6248925	95.53524975	132.3043947	122.4707866	110.6376072
WTI Crude Oil	CL	CL	CL	1	1000	0.141699	0.143124	0.147542	0.143742	0.137722	0.131917	0.128106	0.127838	0.127236	0.131566	0.137526	0.14338	0.14709297	0.09687164	0.09205885	0.08488847	0.07843495	0.07469763	0.07178139	0.07319329	0.07657861	0.07990645	0.08144832	0.08036882	7.17057356	7.43882948	6.66655053	7.03319695	5.37637185	4.93856183	6.05967556	5.10532583	7.59233632	6.4422879	7.38307778	4.07921265	4.27951685	3.60007958	5.27286292	5.61747814	4.36383816	4.27124959	5.16503789	4.57435857	6.537099	5.20063777
Brent Crude	CO	LCO	CO	1	1000	0	0	0	0	0	0	0	0	0	0	0	0	0	0.05312836	0.05794115	0.06511153	0.07156505	0.07530237	0.07821861	0.07680671	0.07342139	0.07009355	0.06855168	0.06963118	0	0	0	0	0	0	0	0	0	0	0	2.01846373	2.28393419	2.42195521	4.52607299	5.756167	4.56946881	4.07049078	4.21700842	3.6740581	5.14687509	4.33489702
Unleaded Gasoline	XB	RB	RB	100	42000	0.050777	0.051003	0.050086	0.046189	0.044636	0.042032	0.040515	0.040549	0.03941	0.037838	0.037091	0.035274	0.03496671	0.03405982	0.03461341	0.03616719	0.03692849	0.03747878	0.03764545	0.0375066	0.02294105	0.02258358	0.02179184	0.02172801	80.82209911	82.32347754	78.08687383	76.06540495	62.81608295	55.10798094	71.01538467	56.53635029	86.61139108	61.35171656	64.38834875	52.80986115	54.1307681	53.55717849	88.5105819	83.18240221	75.72075501	74.35396245	55.78614621	46.62479315	59.87018447	48.00511233
Heating Oil	HO	HO	HO	100	42000	0.057524	0.055873	0.052372	0.048258	0.043764	0.039918	0.038549	0.038461	0.037893	0.038225	0.036482	0.035824	0.0357507	0.03459529	0.03519358	0.03718383	0.03760919	0.03829039	0.03829521	0.0366524	0.02159667	0.02113715	0.02082014	0.02052633	84.43954966	94.28511385	78.25572709	74.4575135	58.1679916	52.84558816	64.90032632	54.36015533	61.49391429	61.01593309	63.97275507	48.39480046	50.84035025	50.31137568	74.06123661	92.34702807	74.41612969	64.28569102	40.14523082	37.21646418	55.22364964	42.77649928
Gas Oil	QS	QS	QS	1	100	0	0	0	0	0	0	0	0	0	0	0	0	0	0	0	0	0	0	0	0	0.02624778	0.02599085	0.02641519	0.02649624	0	0	0	0	0	0	0	0	0	0	0	0	0	0	0	0	0	0	0.15902186	0.1504977	0.24372787	0.19217715
Live Cattle	LC	LC	LC	100	40000	0.058779	0.054872	0.052165	0.053361	0.057015	0.058665	0.061527	0.060938	0.061413	0.048874	0.042853	0.035537	0.03359133	0.03634988	0.03283417	0.03272063	0.03327392	0.03566619	0.03977109	0.04311507	0.04090747	0.04020119	0.03846403	0.03580752	89.80421662	85.40408314	103.5475402	140.2910236	133.8003537	159.2368384	179.9120786	190.253659	130.7077557	154.5925621	141.7885039	129.4759932	107.4530186	95.38077927	66.17576851	69.15471018	115.5374483	129.5667266	109.3341216	113.6999908	136.5891163	133.0704101
Lean Hogs	LH	LH	LH	100	40000	0.032003	0.031388	0.032994	0.035838	0.039077	0.041061	0.04389	0.043514	0.030135	0.025481	0.023989	0.021027	0.02	0.0211266	0.01899765	0.01872441	0.01939764	0.02062133	0.02094123	0.02076036	0.01849149	0.01777952	0.01726395	0.0175465	76.10560978	73.04626887	111.6644462	136.806185	111.247723	169.3905275	136.5234269	168.4656891	98.75722996	117.1339078	112.9387995	107.9219512	95.81495616	87.12974718	80.6826633	89.74531508	109.1901906	104.1615443	98.36601222	91.90834255	101.9693742	107.9717216
Wheat	W	W	WH	100	5000	0.042473	0.044662	0.044976	0.046373	0.048073	0.048853	0.048695	0.047721	0.047155	0.047034	0.047962	0.047046	0.04605238	0.04961809	0.0343327	0.03341175	0.03327641	0.03326834	0.0331742	0.03258924	0.03140397	0.03042251	0.02885005	0.02846361	20.97771201	17.15146074	21.6903778	22.29774025	30.35107621	36.21276431	27.76253677	19.18098866	20.46148302	31.52876918	26.29390324	34.03893139	19.89150725	22.0695545	18.94630122	19.03101431	26.14539597	27.11263487	20.01095779	19.78485437	18.34033171	19.4754306
KCBT Wheat	KW	KW	KW	100	5000	0	0	0	0	0	0	0	0	0	0	0	0	0	0	0.01320645	0.01214791	0.01170509	0.0115314	0.01183459	0.01304854	0.01293785	0.01485964	0.01571388	0.01663653	0	0	0	0	0	0	0	0	0	0	0	0	7.11848836	7.49246887	6.22908819	6.62152989	9.10659131	10.68825097	8.46950315	11.1947022	10.71973394	11.04980952
Corn	C	C	CN	100	5000	0.061005	0.062958	0.063284	0.063922	0.060508	0.060711	0.059378	0.058736	0.056271	0.056635	0.057214	0.070924	0.06978537	0.0667052	0.07053145	0.0719582	0.07246345	0.07358703	0.07410373	0.06134425	0.05892172	0.05833139	0.05586649	0.05589903	36.96194291	34.06559903	37.28292576	43.3678974	54.65104225	68.80808715	42.28947511	44.7310438	35.93885879	63.49834527	52.22132396	44.42764359	44.78365875	67.22364958	60.33803231	55.14375507	69.0476296	62.58644838	50.75650728	54.28800072	46.17311411	47.25883853
Soybeans	S	S	SY	100	5000	0.090791	0.088315	0.086218	0.084985	0.078755	0.074081	0.075957	0.077669	0.077478	0.076285	0.075994	0.079125	0.07856815	0.07084197	0.05494772	0.05683943	0.05681259	0.0570383	0.0583877	0.05959695	0.06025001	0.0563676	0.05817409	0.05788844	22.88718934	22.23797295	20.08837106	16.70477673	27.40591079	31.90522155	31.25206118	22.47835932	20.08270871	28.82636655	25.68486537	25.37581892	17.22455502	17.72762002	17.74676825	17.46036163	19.57938977	22.00084767	21.4650286	21.36758382	17.52568136	21.29967754
Soybean Oil	BO	BO	BO	100	60000	0.02	0.02	0.02	0.02	0.021128	0.024607	0.026654	0.027658	0.028456	0.028119	0.028829	0.029956	0.02937244	0.03372386	0.02742618	0.02830403	0.02812968	0.02837548	0.02807444	0.02748121	0.03103785	0.0289858	0.0319559	0.03171611	176.9415091	137.8764803	148.6429274	155.6483662	253.8931294	301.9461583	272.8589868	204.0399422	208.4647546	277.428365	230.4795846	282.7408585	238.9390381	296.9729054	279.8927707	252.2294282	267.7213639	291.7132742	358.4744607	298.5749332	297.9482488	274.8530348
Soybean Meal	SM	SM	SM	1	100	0	0	0	0	0	0	0	0	0	0	0	0	0	0	0.02606665	0.02682404	0.02745311	0.02844663	0.0290152	0.03035543	0.03443026	0.03295077	0.03598764	0.03520026	0	0	0	0	0	0	0	0	0	0	0	0	0.27746763	0.25673856	0.25587609	0.28024662	0.3109125	0.3379389	0.35186703	0.39134907	0.33996432	0.43715955
Aluminum	LA	AL	AL	1	25	0.049744	0.053139	0.057481	0.062842	0.069875	0.06943	0.070553	0.06852	0.068038	0.07108	0.069992	0.057493	0.05203285	0.05876747	0.04913196	0.0472166	0.04593158	0.04598708	0.04568253	0.04508701	0.04412618	0.04326651	0.04208397	0.04245768	0.04988447	0.04988137	0.07671171	0.07726324	0.07476783	0.07446482	0.07102299	0.10645781	0.11542038	0.09331325	0.093099	0.12200124	0.10383566	0.10584896	0.08497275	0.08258774	0.08902286	0.07338482	0.07703018	0.08543417	0.084517	0.07417965
Copper	HG	HG	HG	100	25000	0.07327	0.069776	0.0656	0.060137	0.059248	0.058146	0.058874	0.058808	0.061878	0.070405	0.073065	0.076414	0.0753909	0.07063949	0.07277332	0.07508304	0.07537578	0.07627248	0.07590762	0.07158679	0.07318567	0.06960582	0.05393768	0.05398292	105.0226066	94.80069041	119.0436646	94.33075972	82.26486851	70.75783006	66.86611477	82.54348926	126.467801	83.34532215	78.44425954	88.13795172	86.12013108	88.94439746	90.15716409	96.69735735	99.45318759	79.43655087	91.38601308	89.16506799	59.5833653	63.27818201
Zinc	LX	ZN	ZS	1	25	0.02	0.02	0.02	0.02	0.02098	0.023569	0.026734	0.027024	0.027981	0.03033	0.031424	0.0302	0.02849355	0.03118735	0.02519216	0.02313815	0.02404134	0.02527632	0.02689341	0.03097632	0.0320687	0.03426238	0.03246883	0.03118927	0.02574322	0.02666998	0.03967445	0.04044291	0.04250281	0.03449535	0.02046528	0.04488315	0.06391704	0.04340384	0.05227411	0.07223231	0.0544305	0.04501741	0.03725842	0.04334251	0.034286	0.03302814	0.04213705	0.05215101	0.04595797	0.04469693
Nickel	LN	NI	NI	1	6	0.02	0.02	0.02	0.02	0.02	0.022318	0.026065	0.026592	0.027153	0.027917	0.028827	0.023668	0.02250815	0.0257984	0.02243619	0.0205352	0.02119396	0.02359375	0.02540917	0.02761648	0.02709321	0.02750797	0.02713954	0.02713427	0.00412817	0.00367147	0.00384253	0.00248824	0.00343952	0.00466073	0.00234182	0.00365076	0.00613909	0.00479766	0.00412732	0.00589452	0.00567892	0.00605297	0.00450134	0.00725726	0.00828284	0.00790536	0.00800971	0.00706905	0.00612227	0.0067833
Gold	GC	GC	GC	1	100	0.096899	0.090349	0.084823	0.073273	0.063564	0.058898	0.059781	0.062202	0.068259	0.073962	0.078627	0.091166	0.10449067	0.09793633	0.10818613	0.11533058	0.11904143	0.11379861	0.11171557	0.11945882	0.12242503	0.13622413	0.14645956	0.15	0.41622706	0.29612362	0.27034153	0.24956866	0.27243215	0.28847002	0.3059901	0.31597088	0.24439554	0.3005774	0.34316134	0.25961493	0.28602687	0.37327767	0.32441655	0.27588706	0.31758454	0.32375091	0.31252012	0.30964524	0.31248652	0.42792562
Silver	SI	SI	SI	1	5000	0.038622	0.037878	0.03408	0.028947	0.024766	0.021446	0.02	0.02	0.022882	0.027214	0.028913	0.03287	0.03289633	0.02769133	0.03897503	0.04141361	0.04276054	0.04213183	0.04115256	0.0367298	0.03887836	0.03778578	0.04353914	0.04746893	9.77933136	6.99110718	7.60629191	6.14816729	5.95292599	5.47232601	5.05733082	6.55442858	6.81163216	6.69733051	5.08799398	4.1377227	5.63928404	8.32941557	8.52793872	7.98003256	8.31007293	7.61503596	8.12504495	7.35146151	6.52082872	10.91913049
Sugar	SB	SB	SB	100	112000	0.021122	0.020694	0.020382	0.022712	0.025485	0.027181	0.02933	0.029674	0.031223	0.031851	0.029932	0.028929	0.03326014	0.0375839	0.03883968	0.0395594	0.03995653	0.03627251	0.03397876	0.03536625	0.03148061	0.03009894	0.02987085	0.02794326	261.9634169	332.0309504	499.158947	848.6260274	626.8382259	500.5175959	764.2865896	1031.608741	653.6551428	386.1829469	495.4755976	691.6310707	896.3511363	980.2922059	891.9792314	665.8702024	546.2370534	840.4472297	819.4386061	792.5553668	781.7856807	784.1159508
Cotton	CT	CT	CT	100	50000	0.028062	0.029087	0.028694	0.02991	0.03163	0.031624	0.032318	0.03163	0.031461	0.024796	0.022652	0.02	0.02	0.02	0.0176582	0.01578423	0.01512999	0.01493191	0.01447819	0.01453711	0.01419419	0.01491557	0.01511098	0.01503287	63.74177091	89.75670297	91.41068104	75.69676342	135.5436068	144.2100876	157.6108225	132.4315693	119.4549175	102.5618279	63.79898546	89.42000933	101.5166795	74.18997683	82.60901773	63.75304112	65.2729102	66.78064014	64.24530926	76.43560004	77.35211883	66.88653209
Coffee	KC	KC	KC	100	37500	0.026538	0.026757	0.026298	0.0277	0.029896	0.029409	0.030244	0.029316	0.030217	0.030016	0.029726	0.025646	0.02355773	0.02572395	0.02442146	0.02319804	0.02212176	0.02294323	0.0237743	0.02605039	0.02478056	0.02712152	0.02736619	0.02733355	53.94339368	64.70843125	69.62224227	77.37612701	60.02904969	61.54624057	68.73228194	84.120443	68.10084594	67.55593198	45.54676151	49.71828827	70.67535627	78.73898936	41.69643959	50.63275266	55.51613533	72.67798866	79.41327256	79.29220121	92.26456184	60.21517077
Cocoa	CC	CC	CC	1	10	0.02	0.02	0.02	0.02	0.02	0.02	0	0	0	0	0	0	0	0	0	0	0	0	0	0	0	0	0	0	0.03247192	0.01597647	0.01351116	0.02232552	0	0	0	0	0	0	0	0	0	0	0	0	0	0	0	0	0	0
